%YAML 1.1
%TAG !u! tag:unity3d.com,2011:
--- !u!114 &11400000
MonoBehaviour:
  m_ObjectHideFlags: 0
  m_CorrespondingSourceObject: {fileID: 0}
  m_PrefabInstance: {fileID: 0}
  m_PrefabAsset: {fileID: 0}
  m_GameObject: {fileID: 0}
  m_Enabled: 1
  m_EditorHideFlags: 0
  m_Script: {fileID: 11500000, guid: 17695383ac03c8e438c224b1809e6e75, type: 3}
  m_Name: SO_Pet_Kitty
  m_EditorClassIdentifier: 
  id: 1
  maxFood: 80
  maxHappiness: 120
  maxSleep: 200
  maxFun: 100
  food: 80
  sleep: 110
  fun: 90
  happiness: 120
  sprite: {fileID: 21300000, guid: 2e57cce3ea09db44594c2a5c7c09d3de, type: 3}
