%YAML 1.1
%TAG !u! tag:unity3d.com,2011:
--- !u!1001 &135506429840086448
PrefabInstance:
  m_ObjectHideFlags: 0
  serializedVersion: 2
  m_Modification:
    serializedVersion: 3
    m_TransformParent: {fileID: 0}
    m_Modifications:
    - target: {fileID: 463045554708029990, guid: ac0df22d07562ff42a6db77dbf08be13, type: 3}
      propertyPath: m_SpriteTilingProperty.oldSize.x
      value: 0.64
      objectReference: {fileID: 0}
    - target: {fileID: 463045554708029990, guid: ac0df22d07562ff42a6db77dbf08be13, type: 3}
      propertyPath: m_SpriteTilingProperty.oldSize.y
      value: 0.64
      objectReference: {fileID: 0}
    - target: {fileID: 885718288805649667, guid: ac0df22d07562ff42a6db77dbf08be13, type: 3}
      propertyPath: m_LocalPosition.y
      value: -3.08
      objectReference: {fileID: 0}
    - target: {fileID: 1039569373978241416, guid: ac0df22d07562ff42a6db77dbf08be13, type: 3}
      propertyPath: m_SortingOrder
      value: 0
      objectReference: {fileID: 0}
    - target: {fileID: 1039569373978241416, guid: ac0df22d07562ff42a6db77dbf08be13, type: 3}
      propertyPath: m_Materials.Array.data[0]
      value: 
      objectReference: {fileID: 2100000, guid: d8c26a74064956e46a890c521ef6dcf8, type: 2}
    - target: {fileID: 3082076200142352122, guid: ac0df22d07562ff42a6db77dbf08be13, type: 3}
      propertyPath: m_GravityScale
      value: 1
      objectReference: {fileID: 0}
    - target: {fileID: 3091066152801635144, guid: ac0df22d07562ff42a6db77dbf08be13, type: 3}
      propertyPath: Response.m_PersistentCalls.m_Calls.Array.data[0].m_Target
      value: 
      objectReference: {fileID: 0}
    - target: {fileID: 5075609516524835868, guid: ac0df22d07562ff42a6db77dbf08be13, type: 3}
      propertyPath: m_Name
      value: Pet Variant
      objectReference: {fileID: 0}
    - target: {fileID: 5094532429462225575, guid: ac0df22d07562ff42a6db77dbf08be13, type: 3}
      propertyPath: looping
      value: 0
      objectReference: {fileID: 0}
    - target: {fileID: 5094532429462225575, guid: ac0df22d07562ff42a6db77dbf08be13, type: 3}
      propertyPath: lengthInSec
      value: 0.2
      objectReference: {fileID: 0}
    - target: {fileID: 5094532429462225575, guid: ac0df22d07562ff42a6db77dbf08be13, type: 3}
      propertyPath: playOnAwake
      value: 0
      objectReference: {fileID: 0}
    - target: {fileID: 5094532429462225575, guid: ac0df22d07562ff42a6db77dbf08be13, type: 3}
      propertyPath: ShapeModule.type
      value: 2
      objectReference: {fileID: 0}
    - target: {fileID: 5094532429462225575, guid: ac0df22d07562ff42a6db77dbf08be13, type: 3}
      propertyPath: ShapeModule.m_Texture
      value: 
      objectReference: {fileID: 2800000, guid: af51c17c318e0e14d895977a29f26dcc, type: 3}
    - target: {fileID: 5094532429462225575, guid: ac0df22d07562ff42a6db77dbf08be13, type: 3}
      propertyPath: ShapeModule.arc.spread
      value: 0
      objectReference: {fileID: 0}
    - target: {fileID: 5094532429462225575, guid: ac0df22d07562ff42a6db77dbf08be13, type: 3}
      propertyPath: ShapeModule.radiusThickness
      value: 1
      objectReference: {fileID: 0}
    - target: {fileID: 5094532429462225575, guid: ac0df22d07562ff42a6db77dbf08be13, type: 3}
      propertyPath: InitialModule.startSize.scalar
      value: 0.3
      objectReference: {fileID: 0}
    - target: {fileID: 5094532429462225575, guid: ac0df22d07562ff42a6db77dbf08be13, type: 3}
      propertyPath: InitialModule.startSpeed.scalar
      value: 1
      objectReference: {fileID: 0}
    - target: {fileID: 5094532429462225575, guid: ac0df22d07562ff42a6db77dbf08be13, type: 3}
      propertyPath: EmissionModule.rateOverTime.scalar
      value: 60
      objectReference: {fileID: 0}
    - target: {fileID: 5094532429462225575, guid: ac0df22d07562ff42a6db77dbf08be13, type: 3}
      propertyPath: InitialModule.startLifetime.scalar
      value: 0.5
      objectReference: {fileID: 0}
    - target: {fileID: 7023473582501366846, guid: ac0df22d07562ff42a6db77dbf08be13, type: 3}
      propertyPath: m_RootOrder
      value: 5
      objectReference: {fileID: 0}
    - target: {fileID: 7023473582501366846, guid: ac0df22d07562ff42a6db77dbf08be13, type: 3}
      propertyPath: m_LocalScale.x
      value: 1.5
      objectReference: {fileID: 0}
    - target: {fileID: 7023473582501366846, guid: ac0df22d07562ff42a6db77dbf08be13, type: 3}
      propertyPath: m_LocalScale.y
      value: 1.5
      objectReference: {fileID: 0}
    - target: {fileID: 7023473582501366846, guid: ac0df22d07562ff42a6db77dbf08be13, type: 3}
      propertyPath: m_LocalPosition.x
      value: -0.02
      objectReference: {fileID: 0}
    - target: {fileID: 7023473582501366846, guid: ac0df22d07562ff42a6db77dbf08be13, type: 3}
      propertyPath: m_LocalPosition.y
      value: -2.82
      objectReference: {fileID: 0}
    - target: {fileID: 7023473582501366846, guid: ac0df22d07562ff42a6db77dbf08be13, type: 3}
      propertyPath: m_LocalPosition.z
      value: 0
      objectReference: {fileID: 0}
    - target: {fileID: 7023473582501366846, guid: ac0df22d07562ff42a6db77dbf08be13, type: 3}
      propertyPath: m_LocalRotation.w
      value: 1
      objectReference: {fileID: 0}
    - target: {fileID: 7023473582501366846, guid: ac0df22d07562ff42a6db77dbf08be13, type: 3}
      propertyPath: m_LocalRotation.x
      value: 0
      objectReference: {fileID: 0}
    - target: {fileID: 7023473582501366846, guid: ac0df22d07562ff42a6db77dbf08be13, type: 3}
      propertyPath: m_LocalRotation.y
      value: 0
      objectReference: {fileID: 0}
    - target: {fileID: 7023473582501366846, guid: ac0df22d07562ff42a6db77dbf08be13, type: 3}
      propertyPath: m_LocalRotation.z
      value: 0
      objectReference: {fileID: 0}
    - target: {fileID: 7023473582501366846, guid: ac0df22d07562ff42a6db77dbf08be13, type: 3}
      propertyPath: m_LocalEulerAnglesHint.x
      value: 0
      objectReference: {fileID: 0}
    - target: {fileID: 7023473582501366846, guid: ac0df22d07562ff42a6db77dbf08be13, type: 3}
      propertyPath: m_LocalEulerAnglesHint.y
      value: 0
      objectReference: {fileID: 0}
    - target: {fileID: 7023473582501366846, guid: ac0df22d07562ff42a6db77dbf08be13, type: 3}
      propertyPath: m_LocalEulerAnglesHint.z
      value: 0
      objectReference: {fileID: 0}
    - target: {fileID: 7535780815085140211, guid: ac0df22d07562ff42a6db77dbf08be13, type: 3}
      propertyPath: m_Sprite
      value: 
      objectReference: {fileID: 21300000, guid: 9b23fc0dc67946f46aa9a230442f2042, type: 3}
    - target: {fileID: 7535780815085140211, guid: ac0df22d07562ff42a6db77dbf08be13, type: 3}
      propertyPath: m_Color.b
      value: 1
      objectReference: {fileID: 0}
    - target: {fileID: 7535780815085140211, guid: ac0df22d07562ff42a6db77dbf08be13, type: 3}
      propertyPath: m_Color.g
      value: 1
      objectReference: {fileID: 0}
    - target: {fileID: 7535780815085140211, guid: ac0df22d07562ff42a6db77dbf08be13, type: 3}
      propertyPath: m_Color.r
      value: 1
      objectReference: {fileID: 0}
    - target: {fileID: 7535780815085140211, guid: ac0df22d07562ff42a6db77dbf08be13, type: 3}
      propertyPath: m_WasSpriteAssigned
      value: 1
      objectReference: {fileID: 0}
    - target: {fileID: 8484392660129014868, guid: ac0df22d07562ff42a6db77dbf08be13, type: 3}
      propertyPath: m_Name
      value: Pet
      objectReference: {fileID: 0}
    m_RemovedComponents:
    - {fileID: 4247454023864191414, guid: ac0df22d07562ff42a6db77dbf08be13, type: 3}
    - {fileID: 463045554708029990, guid: ac0df22d07562ff42a6db77dbf08be13, type: 3}
    - {fileID: 5191965586664775468, guid: ac0df22d07562ff42a6db77dbf08be13, type: 3}
    - {fileID: 3091066152801635144, guid: ac0df22d07562ff42a6db77dbf08be13, type: 3}
    m_RemovedGameObjects: []
    m_AddedGameObjects: []
    m_AddedComponents:
    - targetCorrespondingSourceObject: {fileID: 5075609516524835868, guid: ac0df22d07562ff42a6db77dbf08be13, type: 3}
      insertIndex: -1
      addedObject: {fileID: 2736738140241041632}
  m_SourcePrefab: {fileID: 100100000, guid: ac0df22d07562ff42a6db77dbf08be13, type: 3}
--- !u!1 &5156979567124562348 stripped
GameObject:
  m_CorrespondingSourceObject: {fileID: 5075609516524835868, guid: ac0df22d07562ff42a6db77dbf08be13, type: 3}
  m_PrefabInstance: {fileID: 135506429840086448}
  m_PrefabAsset: {fileID: 0}
--- !u!114 &2736738140241041632
MonoBehaviour:
  m_ObjectHideFlags: 0
  m_CorrespondingSourceObject: {fileID: 0}
  m_PrefabInstance: {fileID: 0}
  m_PrefabAsset: {fileID: 0}
  m_GameObject: {fileID: 5156979567124562348}
  m_Enabled: 1
  m_EditorHideFlags: 0
  m_Script: {fileID: 11500000, guid: ffc3b15f5dd2e0748aa58b8174b831fe, type: 3}
  m_Name: 
  m_EditorClassIdentifier: 
  hp: 0
  puntos: {fileID: 0}
  InputAsset: {fileID: -944628639613478452, guid: 44ef3858afa408b42a37cc5c0925ce60, type: 3}
  pointsManager: {fileID: 0}
  gameManager: {fileID: 0}
  button: {fileID: 0}
  puppy: {fileID: 21300000, guid: 9b23fc0dc67946f46aa9a230442f2042, type: 3}
  kitty: {fileID: 21300000, guid: 2e57cce3ea09db44594c2a5c7c09d3de, type: 3}
  velocity: 12
